module github.com/tomwright/dasel/v2

go 1.21

require (
	github.com/alecthomas/chroma/v2 v2.12.0
	github.com/clbanning/mxj/v2 v2.7.0
	github.com/pelletier/go-toml/v2 v2.1.1
	github.com/spf13/cobra v1.8.0
	golang.org/x/net v0.21.0
	golang.org/x/text v0.14.0
	gopkg.in/yaml.v3 v3.0.1
)

require (
	github.com/cpuguy83/go-md2man/v2 v2.0.3 // indirect
	github.com/dlclark/regexp2 v1.10.0 // indirect
	github.com/google/go-cmp v0.5.9 // indirect
	github.com/inconshreveable/mousetrap v1.1.0 // indirect
	github.com/russross/blackfriday/v2 v2.1.0 // indirect
	github.com/spf13/pflag v1.0.5 // indirect
)
